....................................
----------------------------------------------------------------------
Ran 36 tests in 0.005s

OK
Name               Stmts   Miss Branch BrPart  Cover   Missing
--------------------------------------------------------------
Diplomacy.py          96      0     72      0   100%
TestDiplomacy.py     156      0      2      1    99%   222->exit
--------------------------------------------------------------
TOTAL                252      0     74      1    99%
